%TF.GenerationSoftware,KiCad,Pcbnew,(5.0.0)*%
%TF.CreationDate,2018-10-04T09:13:51+10:00*%
%TF.ProjectId,regulation_rev1,726567756C6174696F6E5F726576312E,rev?*%
%TF.SameCoordinates,Original*%
%TF.FileFunction,Profile,NP*%
%FSLAX46Y46*%
G04 Gerber Fmt 4.6, Leading zero omitted, Abs format (unit mm)*
G04 Created by KiCad (PCBNEW (5.0.0)) date 10/04/18 09:13:51*
%MOMM*%
%LPD*%
G01*
G04 APERTURE LIST*
%ADD10C,0.150000*%
G04 APERTURE END LIST*
D10*
X35000000Y-69000000D02*
X37000000Y-69000000D01*
X35000000Y-167000000D02*
X35000000Y-69000000D01*
X129000000Y-167000000D02*
X35000000Y-167000000D01*
X129000000Y-69000000D02*
X129000000Y-167000000D01*
X37000000Y-69000000D02*
X129000000Y-69000000D01*
M02*
